41B18A8A54BA6EDF9CE5EA718FCD888F.cache.js
user.agent ie8

680DF4F1C18DA22B2301834C88D8CF74.cache.js
user.agent gecko1_8

71C0DBD486ECF367982B4898A40AB0F6.cache.js
user.agent safari

BC62E422DACDF2B8D7BB1727922ED841.cache.js
user.agent ie10

D70FCB233F9BBDC13C3207825CF1703B.cache.js
user.agent ie9

Devmode:devmode.js